<?xml version="1.0" encoding="utf-8"?>
<!-- Generator: Adobe Illustrator 16.0.0, SVG Export Plug-In . SVG Version: 6.00 Build 0)  -->
<!DOCTYPE svg PUBLIC "-//W3C//DTD SVG 1.1//EN" "http://www.w3.org/Graphics/SVG/1.1/DTD/svg11.dtd">
<svg version="1.1" id="Capa_1" xmlns="http://www.w3.org/2000/svg" xmlns:xlink="http://www.w3.org/1999/xlink" x="0px" y="0px"
	 width="512px" height="512px" viewBox="0 0 512 512" enable-background="new 0 0 512 512" xml:space="preserve">
<g transform="translate(-1 -1)">
	<g>
		<g>
			<path fill="#070E23" d="M499.565,395.98l-103.631-69.109c-13.151-8.7-30.779-5.838-40.502,6.578l-30.187,38.812
				c-3.88,5.115-10.932,6.599-16.544,3.481l-5.742-3.166c-19.035-10.375-42.72-23.292-90.439-71.029
				c-47.72-47.736-60.663-71.439-71.039-90.439l-3.148-5.742c-3.161-5.611-1.705-12.693,3.413-16.604l38.786-30.178
				c12.41-9.724,15.277-27.347,6.587-40.502L118.01,14.452c-8.906-13.396-26.773-17.417-40.56-9.13L34.115,31.354
				C20.499,39.358,10.51,52.322,6.241,67.529c-15.604,56.857-3.865,154.985,140.685,299.553
				C261.913,482.06,347.516,512.979,406.353,512.979c13.541,0.059,27.029-1.703,40.102-5.237
				c15.21-4.264,28.176-14.254,36.176-27.874l26.057-43.309C516.986,422.77,512.967,404.891,499.565,395.98z M493.984,427.805
				l-25.997,43.335c-5.744,9.83-15.069,17.058-26.022,20.17c-52.489,14.41-144.191,2.475-282.966-136.3
				C20.224,216.235,8.289,124.541,22.7,72.043c3.116-10.966,10.353-20.304,20.195-26.057l43.334-25.997
				c5.982-3.6,13.737-1.855,17.601,3.958l37.542,56.362l31.509,47.259c3.773,5.706,2.534,13.354-2.85,17.576l-38.795,30.178
				c-11.806,9.027-15.178,25.362-7.909,38.326l3.081,5.597c10.905,19.999,24.461,44.878,73.956,94.365s74.366,63.044,94.356,73.947
				l5.605,3.088c12.963,7.269,29.298,3.898,38.326-7.908l30.177-38.795c4.224-5.381,11.868-6.619,17.577-2.85l103.621,69.109
				C495.845,414.064,497.589,421.823,493.984,427.805z"/>
			<path fill="#070E23" d="M291.118,86.377c80.069,0.089,144.955,64.976,145.045,145.045c0,4.712,3.819,8.532,8.532,8.532
				c4.712,0,8.531-3.819,8.531-8.532c-0.099-89.49-72.619-162.011-162.108-162.109c-4.712,0-8.532,3.819-8.532,8.532
				C282.586,82.558,286.406,86.377,291.118,86.377z"/>
			<path fill="#070E23" d="M291.118,137.57c51.808,0.061,93.792,42.044,93.853,93.853c0,4.712,3.82,8.532,8.532,8.532
				s8.531-3.819,8.531-8.532c-0.07-61.229-49.688-110.847-110.916-110.917c-4.712,0-8.532,3.819-8.532,8.532
				S286.406,137.57,291.118,137.57z"/>
			<path fill="#070E23" d="M291.118,188.762c23.548,0.028,42.632,19.111,42.66,42.661c0,4.712,3.82,8.532,8.532,8.532
				c4.711,0,8.531-3.819,8.531-8.532c-0.038-32.969-26.755-59.688-59.724-59.724c-4.712,0-8.532,3.819-8.532,8.532
				S286.406,188.762,291.118,188.762z"/>
		</g>
	</g>
</g>
</svg>
