<?xml version="1.0" encoding="utf-8"?>
<!-- Generator: Adobe Illustrator 16.0.0, SVG Export Plug-In . SVG Version: 6.00 Build 0)  -->
<!DOCTYPE svg PUBLIC "-//W3C//DTD SVG 1.1//EN" "http://www.w3.org/Graphics/SVG/1.1/DTD/svg11.dtd">
<svg version="1.1" id="Capa_1" xmlns="http://www.w3.org/2000/svg" xmlns:xlink="http://www.w3.org/1999/xlink" x="0px" y="0px"
	 width="612px" height="792px" viewBox="0 0 612 792" enable-background="new 0 0 612 792" xml:space="preserve">
<g>
	<g>
		<circle fill="#070E23" cx="288.849" cy="290.607" r="8.983"/>
	</g>
</g>
<g>
	<g>
		<circle fill="#070E23" cx="385.858" cy="290.607" r="8.983"/>
	</g>
</g>
<g>
	<g>
		<path fill="#070E23" d="M356.512,339.111h-38.325c-4.962,0-8.983,4.022-8.983,8.983s4.021,8.983,8.983,8.983h38.325
			c4.962,0,8.982-4.022,8.982-8.983S361.474,339.111,356.512,339.111z"/>
	</g>
</g>
<g>
	<g>
		<path fill="#070E23" d="M568.585,639.732l-70.262-210.786c-1.863-5.591-4.7-10.646-8.275-15.015v-78.345
			c5.707-3.17,9.582-9.255,9.582-16.233v-38.325c0-6.979-3.874-13.064-9.582-16.235v-22.092C490.05,158.501,421.549,90,337.35,90
			s-152.701,68.501-152.701,152.701v22.091c-5.707,3.17-9.582,9.255-9.582,16.234v38.325c0,6.979,3.874,13.064,9.582,16.235v137.464
			c0,4.961,4.021,8.983,8.982,8.983c4.962,0,8.983-4.022,8.983-8.983v-29.143c0-16.179,13.163-29.343,29.343-29.343h61.855
			l35.738,62.542c3.384,5.925,12.214,5.925,15.597,0l35.74-62.542h72.558c12.649,0,23.836,8.063,27.838,20.063l70.261,210.786
			c3.02,9.057,1.551,18.692-4.032,26.436c-5.581,7.744-14.257,12.187-23.804,12.187H490.02c0.006-0.2,0.03-0.397,0.03-0.6v-38.325
			c0-13.255-9.213-24.39-21.568-27.361l-36.461-100.265c-1.697-4.662-6.846-7.068-11.512-5.371
			c-4.663,1.696-7.067,6.849-5.372,11.511l33.942,93.341h-35.081c-15.52,0-28.146,12.626-28.146,28.145v10.181H281.476
			l-21.55-107.754c-0.839-4.199-4.525-7.221-8.807-7.221h-48.505v-23.354c0-4.96-4.021-8.982-8.983-8.982
			c-4.961,0-8.982,4.022-8.982,8.982v23.354H49.914c-5.579,0-9.902,5.269-8.807,10.744L69.851,694.78
			c0.839,4.199,4.525,7.221,8.807,7.221h445.05c15.391,0,29.379-7.161,38.378-19.646
			C571.082,669.867,573.452,654.333,568.585,639.732z M202.613,242.701c0-74.293,60.443-134.735,134.736-134.735
			c74.292,0,134.735,60.442,134.735,134.735v19.761h-11.168c-4.57-53.594-49.647-95.813-104.405-95.813h-38.325
			c-54.758,0-99.834,42.218-104.406,95.813h-11.168v-19.761H202.613z M443.342,271.444v12.975l-91.554-58.856
			c-5.877-3.775-13.841,0.594-13.841,7.555v22.118l-62.906-39.315c-3.863-2.417-8.928-1.554-11.774,2.006l-30.52,38.149
			c7.278-40.569,42.807-71.463,85.44-71.463h38.325C404.39,184.615,443.342,223.565,443.342,271.444z M231.356,345.272
			c2.76,4.534,5.799,8.878,9.097,13.001h-9.097V345.272L231.356,345.272z M193.631,319.949c-0.33,0-0.599-0.268-0.599-0.599v-38.325
			c0-0.331,0.269-0.599,0.599-0.599h19.761v39.523H193.631L193.631,319.949z M231.957,396.599c-11.08,0-21.273,3.839-29.344,10.241
			v-68.926h10.779v29.343c0,4.96,4.021,8.983,8.982,8.983h35.692c10.252,8.542,21.89,15.455,34.506,20.359H231.957z M337.35,454.545
			l-22.504-39.383h45.009L337.35,454.545z M337.35,387.017c-16.623,0-32.4-3.886-46.473-10.779h8.147
			c4.962,0,8.983-4.022,8.983-8.983c0-4.96-4.021-8.982-8.983-8.982h-34.19c-19.061-17.881-31.558-42.743-33.273-70.629
			c-0.028-0.473-0.105-0.932-0.203-1.382v-0.203c0.624-0.458,40.944-50.668,40.944-50.668l69.869,43.668
			c5.882,3.675,13.743-0.704,13.743-7.617v-21.873l84.896,54.577C430.106,352.432,387.304,387.017,337.35,387.017z M472.085,400.42
			c-5.765-2.469-12.08-3.821-18.64-3.821h-71.208c28.482-11.031,52.04-32.297,65.844-59.751c1.265,0.679,2.708,1.066,4.244,1.066
			h19.761L472.085,400.42L472.085,400.42z M481.666,319.351c0,0.331-0.27,0.599-0.6,0.599h-19.761v-39.523h19.761
			c0.33,0,0.6,0.268,0.6,0.599V319.351z M86.021,684.035L60.87,558.281h182.885l25.15,125.754H86.021z M287.146,683.637
			l-2.075-10.381h100.784v10.181c0,0.067,0.01,0.132,0.01,0.2H287.146z M472.085,683.437c0,0.331-0.269,0.599-0.599,0.599h-10.181
			v-10.18c0-4.961-4.021-8.983-8.982-8.983s-8.983,4.022-8.983,8.983v10.18h-10.779v-10.18c0-4.961-4.021-8.983-8.982-8.983
			s-8.982,4.022-8.982,8.983v10.18h-6.328c-0.838-0.258-1.729-0.398-2.654-0.398h-1.756c-0.022-0.063-0.04-0.128-0.04-0.2v-38.325
			c0-5.613,4.565-10.181,10.181-10.181h47.877c0.011,0,0.02,0.003,0.029,0.003c0.009,0,0.017-0.001,0.024-0.001
			c5.601,0.014,10.155,4.573,10.155,10.179L472.085,683.437L472.085,683.437z"/>
	</g>
</g>
<g>
	<g>
		<circle fill="#070E23" cx="337.354" cy="520.556" r="8.983"/>
	</g>
</g>
<g>
	<g>
		<circle fill="#070E23" cx="337.354" cy="559.479" r="8.983"/>
	</g>
</g>
<g>
	<g>
		<circle fill="#070E23" cx="337.354" cy="598.404" r="8.983"/>
	</g>
</g>
<g>
	<g>
		<circle fill="#070E23" cx="155.311" cy="645.71" r="8.983"/>
	</g>
</g>
<g>
	<g>
		<path fill="#070E23" d="M175.209,616.228c-5.318-5.316-12.386-8.242-19.903-8.242c-7.517,0-14.585,2.927-19.902,8.242
			c-3.508,3.509-3.508,9.196,0,12.703c3.509,3.508,9.195,3.508,12.704,0c1.922-1.922,4.478-2.982,7.198-2.982
			c2.721,0,5.275,1.06,7.198,2.982c1.755,1.754,4.055,2.631,6.352,2.631C176.71,631.562,180.742,621.761,175.209,616.228z"/>
	</g>
</g>
<g>
	<g>
		<path fill="#070E23" d="M195.53,595.905c-10.743-10.747-25.027-16.664-40.225-16.664c-15.196,0-29.481,5.918-40.227,16.663
			c-3.508,3.508-3.508,9.195,0.001,12.703c3.507,3.509,9.194,3.508,12.702,0c7.352-7.352,17.125-11.4,27.522-11.4
			c10.396,0,20.172,4.049,27.522,11.4c3.654,3.653,9.821,3.408,13.181-0.515C199.019,604.577,198.801,599.175,195.53,595.905z"/>
	</g>
</g>
</svg>
